{
    "1": {
        "bus_type": 3,
        "bus_name": "n1",
        "bus_angle0": 0.0,
        "bus_voltage0": 1.0,
        "bus_voltage_min": 0.95,
        "bus_voltage_max": 1.05,
        "bus_p_gen": 1.0,
        "bus_p_gen_min": 0.5,
        "bus_p_gen_max": 3.0,
        "bus_q_gen": 0.0,
        "bus_q_gen_min": -99.9999,
        "bus_q_gen_max": 99.9999,
        "bus_p_load": 0.0,
        "bus_q_load": 0.0,
        "bus_g_shunt": 0.0,
        "bus_b_shunt0": 0.0,
        "bus_b_shunt_min": 0.0,
        "bus_b_shunt_max": 0.0,
        "bus_b_dispatch": 0,
        "bus_area": 0
    },
    "2": {
        "bus_type": 0,
        "bus_name": "n2",
        "bus_angle0": 0.0,
        "bus_voltage0": 1.0,
        "bus_voltage_min": 0.95,
        "bus_voltage_max": 1.05,
        "bus_p_gen": 0.0,
        "bus_p_gen_min": 0.0,
        "bus_p_gen_max": 0.0,
        "bus_q_gen": 0.0,
        "bus_q_gen_min": 0.0,
        "bus_q_gen_max": 0.0,
        "bus_p_load": 0.0,
        "bus_q_load": 0.0,
        "bus_g_shunt": 0.0,
        "bus_b_shunt0": 0.0,
        "bus_b_shunt_min": 0.0,
        "bus_b_shunt_max": 0.0,
        "bus_b_dispatch": 0,
        "bus_area": 0
    },
    "3": {
        "bus_type": 0,
        "bus_name": "n3",
        "bus_angle0": 0.0,
        "bus_voltage0": 1.0,
        "bus_voltage_min": 0.95,
        "bus_voltage_max": 1.05,
        "bus_p_gen": 0.0,
        "bus_p_gen_min": 0.0,
        "bus_p_gen_max": 0.0,
        "bus_q_gen": 0.0,
        "bus_q_gen_min": 0.0,
        "bus_q_gen_max": 0.0,
        "bus_p_load": 0.0,
        "bus_q_load": 0.0,
        "bus_g_shunt": 0.0,
        "bus_b_shunt0": 0.0,
        "bus_b_shunt_min": 0.0,
        "bus_b_shunt_max": 0.0,
        "bus_b_dispatch": 0,
        "bus_area": 0
    },
    "4": {
        "bus_type": 0,
        "bus_name": "n4",
        "bus_angle0": 0.0,
        "bus_voltage0": 1.0,
        "bus_voltage_min": 0.95,
        "bus_voltage_max": 1.05,
        "bus_p_gen": 0.0,
        "bus_p_gen_min": 0.0,
        "bus_p_gen_max": 0.0,
        "bus_q_gen": 0.0,
        "bus_q_gen_min": 0.0,
        "bus_q_gen_max": 0.0,
        "bus_p_load": 1.0,
        "bus_q_load": 0.25,
        "bus_g_shunt": 0.0,
        "bus_b_shunt0": 0.0,
        "bus_b_shunt_min": 0.0,
        "bus_b_shunt_max": 0.0,
        "bus_b_dispatch": 0,
        "bus_area": 0
    }
}