param:
 BUS: bus_type         bus_name bus_angle0 bus_voltage0 bus_voltage_min bus_voltage_max bus_p_gen bus_p_gen_min bus_p_gen_max bus_q_gen bus_q_gen_min bus_q_gen_max bus_p_load bus_q_load bus_g_shunt bus_b_shunt0 bus_b_shunt_min bus_b_shunt_max bus_b_dispatch bus_area :=
   1         3      "sourcebus"       0.00       1.0000          0.9500          1.0500    1.0000        0.9000        1.1000    0.0000      -99.9999       99.9999     0.0000     0.0000      0.0000       0.0000          0.0000          0.0000              0        0
   2         0             "n2"       0.00       0.9892          0.9500          1.0500    0.0000        0.9000        1.1000    0.0000        0.0000        0.0000     0.0000     0.0000      0.0000       0.0000          0.0000          0.0000              0        0
   3         0             "n3"       0.00       0.9399          0.9500          1.0500    0.0000        0.9000        1.1000    0.0000        0.0000        0.0000     0.0000     0.0000      0.0000       0.0000          0.0000          0.0000              0        0
   4         0             "n4"       0.00       0.8271          0.9500          1.0500    0.0000        0.9000        1.1000    0.0000        0.0000        0.0000     0.0800     0.0350      0.0000       0.0000          0.0000          0.0000              0        0
