param: 
BRANCH: /* bus_from bus_to */ branch_type branch_r branch_x branch_bsh branch_tap0 branch_tap_min branch_tap_max branch_step_size branch_def0 branch_def_min branch_def_max :=
     1            1      2              0 0.019380 0.059170   0.052800      1.0000         0.9000         1.1000          0.00625        0.00           0.00           0.00
     2            1      5              0 0.054030 0.223040   0.049200      1.0000         0.9000         1.1000          0.00625        0.00           0.00           0.00
     3            2      3              0 0.046990 0.197970   0.043800      1.0000         0.9000         1.1000          0.00625        0.00           0.00           0.00
     4            2      4              0 0.058110 0.176320   0.037400      1.0000         0.9000         1.1000          0.00625        0.00           0.00           0.00
     5            2      5              0 0.056950 0.173880   0.034000      1.0000         0.9000         1.1000          0.00625        0.00           0.00           0.00
     6            3      4              0 0.067010 0.171030   0.034600      1.0000         0.9000         1.1000          0.00625        0.00           0.00           0.00
     7            4      5              0 0.013350 0.042110   0.012800      1.0000         0.9000         1.1000          0.00625        0.00           0.00           0.00
     8            4      7              1 0.000000 0.209120   0.000000      0.9780         0.9000         1.1000          0.00625        0.00           0.00           0.00
     9            4      9              1 0.000000 0.556180   0.000000      0.9690         0.9000         1.1000          0.00625        0.00           0.00           0.00
    10            5      6              1 0.000000 0.252020   0.000000      0.9320         0.9000         1.1000          0.00625        0.00           0.00           0.00
    11            6     11              0 0.094980 0.198900   0.000000      1.0000         0.9000         1.1000          0.00625        0.00           0.00           0.00
    12            6     12              0 0.122910 0.255810   0.000000      1.0000         0.9000         1.1000          0.00625        0.00           0.00           0.00
    13            6     13              0 0.066150 0.130270   0.000000      1.0000         0.9000         1.1000          0.00625        0.00           0.00           0.00
    14            7      8              0 0.000000 0.176150   0.000000      1.0000         0.9000         1.1000          0.00625        0.00           0.00           0.00
    15            7      9              0 0.000000 0.110010   0.000000      1.0000         0.9000         1.1000          0.00625        0.00           0.00           0.00
    16            9     10              0 0.031810 0.084500   0.000000      1.0000         0.9000         1.1000          0.00625        0.00           0.00           0.00
    17            9     14              0 0.127110 0.270380   0.000000      1.0000         0.9000         1.1000          0.00625        0.00           0.00           0.00
    18           10     11              0 0.082050 0.192070   0.000000      1.0000         0.9000         1.1000          0.00625        0.00           0.00           0.00
    19           12     13              0 0.220920 0.199880   0.000000      1.0000         0.9000         1.1000          0.00625        0.00           0.00           0.00
    20           13     14              0 0.170930 0.348020   0.000000      1.0000         0.9000         1.1000          0.00625        0.00           0.00           0.00