param:
  BUS:   bus_type        bus_name    bus_angle0    bus_voltage0    bus_voltage_min    bus_voltage_max    bus_p_gen    bus_p_gen_min    bus_p_gen_max    bus_q_gen    bus_q_gen_min    bus_q_gen_max    bus_p_load    bus_q_load    bus_g_shunt    bus_b_shunt0    bus_b_shunt_min    bus_b_shunt_max    bus_b_dispatch    bus_area :=
    1           3  "------------"          0.00          1.0600             0.9500             1.0500       2.3240           0.9000           1.1000      -0.1690         -99.9900          99.9900        0.0000        0.0000         0.0000          0.0000             0.0000             0.0000                 0           0
    2           2  "------------"          0.00          1.0450             0.9500             1.0500       0.4000           0.9000           1.1000       0.4240          -0.4000           0.5000        0.2170        0.1270         0.0000          0.0000             0.0000             0.0000                 0           0
    3           2  "------------"          0.00          1.0100             0.9500             1.0500       0.0000           0.9000           1.1000       0.2340           0.0000           0.4000        0.9420        0.1900         0.0000          0.0000             0.0000             0.0000                 0           0
    4           0  "------------"          0.00          1.0190             0.9500             1.0500       0.0000           0.9000           1.1000       0.0000           0.0000           0.0000        0.4780        0.0390         0.0000          0.0000             0.0000             0.0000                 0           0
    5           0  "------------"          0.00          1.0200             0.9500             1.0500       0.0000           0.9000           1.1000       0.0000           0.0000           0.0000        0.0760        0.0160         0.0000          0.0000             0.0000             0.0000                 0           0
    6           2  "------------"          0.00          1.0700             0.9500             1.0500       0.0000           0.9000           1.1000       0.1220          -0.0600           0.2400        0.1120        0.0750         0.0000          0.0000             0.0000             0.0000                 0           0
    7           0  "------------"          0.00          1.0620             0.9500             1.0500       0.0000           0.9000           1.1000       0.0000           0.0000           0.0000        0.0000        0.0000         0.0000          0.0000             0.0000             0.0000                 0           0
    8           2  "------------"          0.00          1.0900             0.9500             1.0500       0.0000           0.9000           1.1000       0.1740          -0.0600           0.2400        0.0000        0.0000         0.0000          0.0000             0.0000             0.0000                 0           0
    9           0  "------------"          0.00          1.0560             0.9500             1.0500       0.0000           0.9000           1.1000       0.0000           0.0000           0.0000        0.2950        0.1660         0.0000          0.1900            -1.0000             1.0000                 0           0
   10           0  "------------"          0.00          1.0510             0.9500             1.0500       0.0000           0.9000           1.1000       0.0000           0.0000           0.0000        0.0900        0.0580         0.0000          0.0000             0.0000             0.0000                 0           0
   11           0  "------------"          0.00          1.0570             0.9500             1.0500       0.0000           0.9000           1.1000       0.0000           0.0000           0.0000        0.0350        0.0180         0.0000          0.0000             0.0000             0.0000                 0           0
   12           0  "------------"          0.00          1.0550             0.9500             1.0500       0.0000           0.9000           1.1000       0.0000           0.0000           0.0000        0.0610        0.0160         0.0000          0.0000             0.0000             0.0000                 0           0
   13           0  "------------"          0.00          1.0500             0.9500             1.0500       0.0000           0.9000           1.1000       0.0000           0.0000           0.0000        0.1350        0.0580         0.0000          0.0000             0.0000             0.0000                 0           0
   14           0  "------------"          0.00          1.0360             0.9500             1.0500       0.0000           0.9000           1.1000       0.0000           0.0000           0.0000        0.1490        0.0500         0.0000          0.0000             0.0000             0.0000                 0           0