param bus_type {BUS};
param bus_name {BUS} symbolic;
param bus_angle0 {BUS};
param bus_voltage0 {BUS};
param bus_voltage_min {BUS};
param bus_voltage_max {BUS};
param bus_p_gen {BUS};
param bus_p_gen_min {BUS};
param bus_p_gen_max {BUS};
param bus_q_gen {BUS};
param bus_q_gen_min {BUS};
param bus_q_gen_max {BUS};
param bus_p_load {BUS};
param bus_q_load {BUS};
param bus_g_shunt {BUS};
param bus_b_shunt0 {BUS};
param bus_b_shunt_min {BUS};
param bus_b_shunt_max {BUS};
param bus_b_dispatch {BUS};
param bus_area {BUS};